%YAML 1.1
%TAG !u! tag:unity3d.com,2011:
--- !u!74 &7400000
AnimationClip:
  m_ObjectHideFlags: 0
  m_CorrespondingSourceObject: {fileID: 0}
  m_PrefabInstance: {fileID: 0}
  m_PrefabAsset: {fileID: 0}
  m_Name: Dead_pj
  serializedVersion: 6
  m_Legacy: 0
  m_Compressed: 0
  m_UseHighQualityCurve: 1
  m_RotationCurves: []
  m_CompressedRotationCurves: []
  m_EulerCurves: []
  m_PositionCurves: []
  m_ScaleCurves: []
  m_FloatCurves: []
  m_PPtrCurves:
  - curve:
    - time: 0
      value: {fileID: 21300000, guid: 6f875db03e567de4987ca0a1a656c05d, type: 3}
    - time: 0.083333336
      value: {fileID: 21300000, guid: e26858400f5eb16449fac1051c951253, type: 3}
    - time: 0.16666667
      value: {fileID: 21300000, guid: 9de65ceca207400498a1a3c15406b25e, type: 3}
    - time: 0.25
      value: {fileID: 21300000, guid: 9d3a1edff525c8a428a9061d5ff8af74, type: 3}
    - time: 0.33333334
      value: {fileID: 21300000, guid: f915d67c6c63ba44ead54236ddc7f3e8, type: 3}
    - time: 0.41666666
      value: {fileID: 21300000, guid: ebf964bd68186204ea7770437ef46bf3, type: 3}
    - time: 0.5
      value: {fileID: 21300000, guid: ea8c88fa3bf572741aae23b010349b5a, type: 3}
    - time: 0.5833333
      value: {fileID: 21300000, guid: 3b30e89f0335591448e2d4ca2e07e7b0, type: 3}
    - time: 0.6666667
      value: {fileID: 21300000, guid: d4459f7b3351f554a9a47e60c802e811, type: 3}
    - time: 0.75
      value: {fileID: 21300000, guid: 1595b28b92790cd4ead320780f407729, type: 3}
    attribute: m_Sprite
    path: 
    classID: 212
    script: {fileID: 0}
  m_SampleRate: 12
  m_WrapMode: 0
  m_Bounds:
    m_Center: {x: 0, y: 0, z: 0}
    m_Extent: {x: 0, y: 0, z: 0}
  m_ClipBindingConstant:
    genericBindings:
    - serializedVersion: 2
      path: 0
      attribute: 0
      script: {fileID: 0}
      typeID: 212
      customType: 23
      isPPtrCurve: 1
    pptrCurveMapping:
    - {fileID: 21300000, guid: 6f875db03e567de4987ca0a1a656c05d, type: 3}
    - {fileID: 21300000, guid: e26858400f5eb16449fac1051c951253, type: 3}
    - {fileID: 21300000, guid: 9de65ceca207400498a1a3c15406b25e, type: 3}
    - {fileID: 21300000, guid: 9d3a1edff525c8a428a9061d5ff8af74, type: 3}
    - {fileID: 21300000, guid: f915d67c6c63ba44ead54236ddc7f3e8, type: 3}
    - {fileID: 21300000, guid: ebf964bd68186204ea7770437ef46bf3, type: 3}
    - {fileID: 21300000, guid: ea8c88fa3bf572741aae23b010349b5a, type: 3}
    - {fileID: 21300000, guid: 3b30e89f0335591448e2d4ca2e07e7b0, type: 3}
    - {fileID: 21300000, guid: d4459f7b3351f554a9a47e60c802e811, type: 3}
    - {fileID: 21300000, guid: 1595b28b92790cd4ead320780f407729, type: 3}
  m_AnimationClipSettings:
    serializedVersion: 2
    m_AdditiveReferencePoseClip: {fileID: 0}
    m_AdditiveReferencePoseTime: 0
    m_StartTime: 0
    m_StopTime: 0.8333333
    m_OrientationOffsetY: 0
    m_Level: 0
    m_CycleOffset: 0
    m_HasAdditiveReferencePose: 0
    m_LoopTime: 0
    m_LoopBlend: 0
    m_LoopBlendOrientation: 0
    m_LoopBlendPositionY: 0
    m_LoopBlendPositionXZ: 0
    m_KeepOriginalOrientation: 0
    m_KeepOriginalPositionY: 1
    m_KeepOriginalPositionXZ: 0
    m_HeightFromFeet: 0
    m_Mirror: 0
  m_EditorCurves: []
  m_EulerEditorCurves: []
  m_HasGenericRootTransform: 0
  m_HasMotionFloatCurves: 0
  m_Events: []
