%YAML 1.1
%TAG !u! tag:unity3d.com,2011:
--- !u!74 &7400000
AnimationClip:
  m_ObjectHideFlags: 0
  m_CorrespondingSourceObject: {fileID: 0}
  m_PrefabInstance: {fileID: 0}
  m_PrefabAsset: {fileID: 0}
  m_Name: Idle_Pj
  serializedVersion: 6
  m_Legacy: 0
  m_Compressed: 0
  m_UseHighQualityCurve: 1
  m_RotationCurves: []
  m_CompressedRotationCurves: []
  m_EulerCurves: []
  m_PositionCurves: []
  m_ScaleCurves: []
  m_FloatCurves: []
  m_PPtrCurves:
  - curve:
    - time: 0
      value: {fileID: 21300000, guid: 618838cc91656ad4a970a16db4a1ffae, type: 3}
    - time: 0.083333336
      value: {fileID: 21300000, guid: 95c00c8ff72e6f449b089bb54bf1d26a, type: 3}
    - time: 0.16666667
      value: {fileID: 21300000, guid: 7cccd5b4c1645cc48bf1a0555ab52410, type: 3}
    - time: 0.25
      value: {fileID: 21300000, guid: 76e34991c2b28a14fb9d5f820d9cacbe, type: 3}
    - time: 0.33333334
      value: {fileID: 21300000, guid: 5e7972b7c570593458f3327c4d3ac82c, type: 3}
    - time: 0.41666666
      value: {fileID: 21300000, guid: 6eb8d131aab03f74a99683f9f1f0f157, type: 3}
    - time: 0.5
      value: {fileID: 21300000, guid: 6b28ca8dd238d7d43b35272482febdca, type: 3}
    - time: 0.5833333
      value: {fileID: 21300000, guid: c72d6fd3bacb7d0469f5ea25a250d97f, type: 3}
    - time: 0.6666667
      value: {fileID: 21300000, guid: 84ac53feacf4c6a479f99681ca28a7be, type: 3}
    - time: 0.75
      value: {fileID: 21300000, guid: f02d9072566ac3b4992e047e2b39b973, type: 3}
    attribute: m_Sprite
    path: 
    classID: 212
    script: {fileID: 0}
  m_SampleRate: 12
  m_WrapMode: 0
  m_Bounds:
    m_Center: {x: 0, y: 0, z: 0}
    m_Extent: {x: 0, y: 0, z: 0}
  m_ClipBindingConstant:
    genericBindings:
    - serializedVersion: 2
      path: 0
      attribute: 0
      script: {fileID: 0}
      typeID: 212
      customType: 23
      isPPtrCurve: 1
    pptrCurveMapping:
    - {fileID: 21300000, guid: 618838cc91656ad4a970a16db4a1ffae, type: 3}
    - {fileID: 21300000, guid: 95c00c8ff72e6f449b089bb54bf1d26a, type: 3}
    - {fileID: 21300000, guid: 7cccd5b4c1645cc48bf1a0555ab52410, type: 3}
    - {fileID: 21300000, guid: 76e34991c2b28a14fb9d5f820d9cacbe, type: 3}
    - {fileID: 21300000, guid: 5e7972b7c570593458f3327c4d3ac82c, type: 3}
    - {fileID: 21300000, guid: 6eb8d131aab03f74a99683f9f1f0f157, type: 3}
    - {fileID: 21300000, guid: 6b28ca8dd238d7d43b35272482febdca, type: 3}
    - {fileID: 21300000, guid: c72d6fd3bacb7d0469f5ea25a250d97f, type: 3}
    - {fileID: 21300000, guid: 84ac53feacf4c6a479f99681ca28a7be, type: 3}
    - {fileID: 21300000, guid: f02d9072566ac3b4992e047e2b39b973, type: 3}
  m_AnimationClipSettings:
    serializedVersion: 2
    m_AdditiveReferencePoseClip: {fileID: 0}
    m_AdditiveReferencePoseTime: 0
    m_StartTime: 0
    m_StopTime: 0.8333333
    m_OrientationOffsetY: 0
    m_Level: 0
    m_CycleOffset: 0
    m_HasAdditiveReferencePose: 0
    m_LoopTime: 1
    m_LoopBlend: 0
    m_LoopBlendOrientation: 0
    m_LoopBlendPositionY: 0
    m_LoopBlendPositionXZ: 0
    m_KeepOriginalOrientation: 0
    m_KeepOriginalPositionY: 1
    m_KeepOriginalPositionXZ: 0
    m_HeightFromFeet: 0
    m_Mirror: 0
  m_EditorCurves: []
  m_EulerEditorCurves: []
  m_HasGenericRootTransform: 0
  m_HasMotionFloatCurves: 0
  m_Events: []
